ENSSSCG00000000921
ENSSSCG00000011825
ENSSSCG00000027353
ENSSSCG00000024180
ENSSSCG00000021825
ENSSSCG00000004970
ENSSSCG00000016098
ENSSSCG00000001922
XLOC_010223
ENSSSCG00000027971
XLOC_029898
ENSSSCG00000010063
XLOC_011183
ENSSSCG00000012784
XLOC_010959
ENSSSCG00000005987
ENSSSCG00000024974
ENSSSCG00000017308
ENSSSCG00000017705
ENSSSCG00000019018
ENSSSCG00000020790
ENSSSCG00000010631
ENSSSCG00000014076
ENSSSCG00000007331
ENSSSCG00000003716
ENSSSCG00000010865
