ENSSSCG00000026914
ENSSSCG00000013619
ENSSSCG00000006777
ENSSSCG00000015786
ENSSSCG00000027308
ENSSSCG00000014177
ENSSSCG00000017114
ENSSSCG00000027827
XLOC_007562
ENSSSCG00000029855
ENSSSCG00000007281
ENSSSCG00000007189
ENSSSCG00000024254
ENSSSCG00000023325
ENSSSCG00000025868
