"SUID","AverageShortestPathLength","BetweennessCentrality","ClosenessCentrality","ClusteringCoefficient","Degree","Eccentricity","Gene.ID.Org","Interconnected","IsSingleNode","MCODE_Cluster","MCODE_Node_Status","MCODE_Score","name","NeighborhoodConnectivity","NumberOfDirectedEdges","NumberOfUndirectedEdges","Origin","PartnerOfMultiEdgedNodePairs","Radiality","selected","SelfLoops","Sequence.Description","shared name","Stress","TopologicalCoefficient"
"62","3.41326531","0.00260243","0.29297459","0.60714286","8","9","ENSSSCG00000021542","true","false","Cluster 4","Seed","5.0","IPECJ2_ENSSSCG00000021542","16.375","8","0","IPEC_J2","0","0.84917092","true","0","Unknown","IPECJ2_ENSSSCG00000021542","1424","0.23392857"
"63","2.94387755","0.03415779","0.33968804","0.52036199","52","9","ENSSSCG00000007472","true","false","Cluster 1","Clustered","16.935483870967744","IPECJ2_ENSSSCG00000007472","33.75","52","0","IPEC_J2","0","0.87850765","true","0","breast carcinoma amplified sequence 4 [Source:HGNC Symbol;Acc:HGNC:14367]","IPECJ2_ENSSSCG00000007472","46272","0.33415842"
"64","3.15816327","0.05545018","0.31663974","0.38181818","11","9","XLOC_023587","true","false","Cluster 4","Clustered","4.523809523809524","IPECJ2_XLOC_023587","16.09090909","11","0","IPEC_J2","0","0.8651148","true","0","IL-23 (Fragment) OS=Sus scrofa PE=2 SV=1","IPECJ2_XLOC_023587","39968","0.1962306"
"65","1.0","0.0","1.0","0.0","1","1","XLOC_023799","true","false","","Unclustered","0.0","IPECJ2_XLOC_023799","1.0","1","0","IPEC_J2","0","1.0","false","0","Mirror-image polydactyly gene 1 protein OS=Homo sapiens GN=MIPOL1 PE=1 SV=1","IPECJ2_XLOC_023799","0","0.0"
"66","3.55102041","0.00994964","0.2816092","0.70588235","17","9","ENSSSCG00000007331","true","false","Cluster 5","Clustered","12.0","IPECJ2_ENSSSCG00000007331","27.23529412","17","0","IPEC_J2","0","0.84056122","true","0","RB transcriptional corepressor like 1 [Source:HGNC Symbol;Acc:HGNC:9893]","IPECJ2_ENSSSCG00000007331","8232","0.41900452"
"67","3.37755102","0.00296519","0.29607251","0.66007905","23","9","ENSSSCG00000007281","true","false","Cluster 2","Clustered","13.084967320261438","IPECJ2_ENSSSCG00000007281","31.86956522","23","0","IPEC_J2","0","0.85140306","true","0","microtubule associated protein 1 light chain 3 alpha [Source:HGNC Symbol;Acc:HGNC:6838]","IPECJ2_ENSSSCG00000007281","3892","0.39836957"
"68","3.4744898","0.00143215","0.28781204","0.75483871","31","9","ENSSSCG00000007160","true","false","Cluster 1","Clustered","18.105072463768117","IPECJ2_ENSSSCG00000007160","38.80645161","31","0","IPEC_J2","0","0.84534439","true","0","DDRGK domain containing 1 [Source:HGNC Symbol;Acc:HGNC:16110]","IPECJ2_ENSSSCG00000007160","2888","0.46754761"
"69","3.2244898","0.01092041","0.31012658","0.63492063","28","9","ENSSSCG00000007189","true","false","Cluster 2","Clustered","12.133333333333333","IPECJ2_ENSSSCG00000007189","33.67857143","28","0","IPEC_J2","0","0.86096939","true","0","syndecan binding protein 2 [Source:HGNC Symbol;Acc:HGNC:15756]","IPECJ2_ENSSSCG00000007189","13096","0.39621849"
"70","3.94897959","0.02506692","0.25322997","0.46666667","10","10","ENSSSCG00000007119","true","false","","Unclustered","4.761904761904762","IPECJ2_ENSSSCG00000007119","21.0","10","0","IPEC_J2","0","0.81568878","false","0","nuclear transport factor 2 like export factor 1 [Source:HGNC Symbol;Acc:HGNC:15913]","IPECJ2_ENSSSCG00000007119","39654","0.36206897"
"71","6.14795918","0.0","0.1626556","1.0","3","13","ENSSSCG00000007100","true","false","","Unclustered","3.0","IPECJ2_ENSSSCG00000007100","4.66666667","3","0","IPEC_J2","0","0.67825255","false","0","solute carrier family 24 member 3 [Source:HGNC Symbol;Acc:HGNC:10977]","IPECJ2_ENSSSCG00000007100","0","0.77777778"
"72","3.24489796","0.00377338","0.3081761","0.66829268","41","9","ENSSSCG00000020817","true","false","Cluster 1","Clustered","15.714285714285714","IPECJ2_ENSSSCG00000020817","37.63414634","41","0","IPEC_J2","0","0.85969388","true","0","40S ribosomal protein S16  [Source:UniProtKB/Swiss-Prot;Acc:Q29201]","IPECJ2_ENSSSCG00000020817","9066","0.41356205"
"73","5.96938776","0.04018838","0.16752137","0.0","2","12","ENSSSCG00000020701","true","false","","Unclustered","0.6666666666666666","IPECJ2_ENSSSCG00000020701","3.0","2","0","IPEC_J2","0","0.68941327","false","0","tetratricopeptide repeat domain 9 [Source:HGNC Symbol;Acc:HGNC:20267]","IPECJ2_ENSSSCG00000020701","36384","0.5"
"74","7.58673469","0.01020408","0.13180901","0.33333333","3","15","ENSSSCG00000020675","true","false","","Unclustered","2.0","IPECJ2_ENSSSCG00000020675","2.66666667","3","0","IPEC_J2","0","0.58832908","false","0","activating transcription factor 7 interacting protein 2 [Source:HGNC Symbol;Acc:HGNC:20397]","IPECJ2_ENSSSCG00000020675","7146","0.58333333"
"75","3.23979592","0.01241022","0.30866142","0.58668076","44","9","ENSSSCG00000020790","true","false","Cluster 1","Clustered","18.933333333333334","IPECJ2_ENSSSCG00000020790","34.22727273","44","0","IPEC_J2","0","0.86001276","true","0","Uncharacterized protein OS=Sus scrofa GN=MYEOV2 PE=1 SV=1","IPECJ2_ENSSSCG00000020790","28384","0.3845761"
"76","9.8877551","0.0","0.10113519","0.0","1","16","ENSSSCG00000006947","true","false","","Unclustered","0.0","IPECJ2_ENSSSCG00000006947","2.0","1","0","IPEC_J2","0","0.44451531","false","0","synapse defective Rho GTPase homolog 2 [Source:HGNC Symbol;Acc:HGNC:25841]","IPECJ2_ENSSSCG00000006947","0","0.0"
"77","4.97959184","0.0","0.20081967","1.0","3","11","ENSSSCG00000006894","true","false","Cluster 3","Seed","3.0","IPECJ2_ENSSSCG00000006894","4.66666667","3","0","IPEC_J2","0","0.75127551","false","0","formin binding protein 1 like [Source:HGNC Symbol;Acc:HGNC:20851]","IPECJ2_ENSSSCG00000006894","0","0.77777778"
"78","3.23469388","0.01394279","0.30914826","0.58846154","40","9","ENSSSCG00000006777","true","false","Cluster 2","Clustered","12.84659090909091","IPECJ2_ENSSSCG00000006777","33.075","40","0","IPEC_J2","0","0.86033163","true","0","ras homolog family member C [Source:HGNC Symbol;Acc:HGNC:669]","IPECJ2_ENSSSCG00000006777","22416","0.3675"
"79","3.20408163","0.01771881","0.31210191","0.57948718","40","9","ENSSSCG00000019018","true","false","Cluster 1","Clustered","17.217391304347828","IPECJ2_ENSSSCG00000019018","33.15","40","0","IPEC_J2","0","0.8622449","true","0","Unknown","IPECJ2_ENSSSCG00000019018","30822","0.36428571"
"80","3.31632653","0.0058913","0.30153846","0.68371212","33","9","ENSSSCG00000017705","true","false","Cluster 1","Clustered","17.905263157894737","IPECJ2_ENSSSCG00000017705","34.96969697","33","0","IPEC_J2","0","0.85522959","true","0","C-C motif chemokine ligand 5 [Source:HGNC Symbol;Acc:HGNC:10632]","IPECJ2_ENSSSCG00000017705","15828","0.40195054"
"81","1.33333333","0.0","0.75","1.0","2","2","ENSSSCG00000006530","true","false","Cluster 11","Seed","2.0","IPECJ2_ENSSSCG00000006530","2.5","2","0","IPEC_J2","0","0.83333333","false","0","ephrin-A1 [Source:HGNC Symbol;Acc:HGNC:3221]","IPECJ2_ENSSSCG00000006530","0","0.83333333"
"82","4.8622449","0.04905422","0.20566632","0.6","5","12","ENSSSCG00000017673","true","false","Cluster 10","Seed","4.0","IPECJ2_ENSSSCG00000017673","6.6","5","0","IPEC_J2","0","0.75860969","false","0","integrator complex subunit 2 [Source:HGNC Symbol;Acc:HGNC:29241]","IPECJ2_ENSSSCG00000017673","57134","0.45714286"
"83","1.0","0.0","1.0","0.0","1","1","XLOC_015009","true","false","","Unclustered","0.0","IPECJ2_XLOC_015009","1.0","1","0","IPEC_J2","0","1.0","false","0","Unknown","IPECJ2_XLOC_015009","0","0.0"
"84","3.83673469","0.00131809","0.2606383","0.79084967","18","10","ENSSSCG00000017308","true","false","Cluster 5","Clustered","13.0","IPECJ2_ENSSSCG00000017308","27.94444444","18","0","IPEC_J2","0","0.82270408","true","0","cell division cycle 27 [Source:HGNC Symbol;Acc:HGNC:1728]","IPECJ2_ENSSSCG00000017308","4834","0.45810565"
"85","4.17346939","0.09808072","0.2396088","0.5","4","11","ENSSSCG00000006090","true","false","Cluster 6","Seed","3.0","IPECJ2_ENSSSCG00000006090","5.0","4","0","IPEC_J2","0","0.80165816","false","0","mitochondrial transcription termination factor 3 [Source:HGNC Symbol;Acc:HGNC:24258]","IPECJ2_ENSSSCG00000006090","44044","0.36538462"
"86","3.37755102","2.9366E-4","0.29607251","0.8442029","24","9","ENSSSCG00000017114","true","false","Cluster 2","Clustered","14.822510822510823","IPECJ2_ENSSSCG00000017114","40.54166667","24","0","IPEC_J2","0","0.85140306","true","0","NADH:ubiquinone oxidoreductase subunit S6 [Source:HGNC Symbol;Acc:HGNC:7713]","IPECJ2_ENSSSCG00000017114","798","0.49441057"
"87","3.75","0.00165797","0.26666667","0.7047619","15","10","ENSSSCG00000005987","true","false","","Unclustered","10.0","IPECJ2_ENSSSCG00000005987","31.66666667","15","0","IPEC_J2","0","0.828125","false","0","Unknown","IPECJ2_ENSSSCG00000005987","1796","0.47979798"
"88","4.58163265","0.01735121","0.21826281","0.33333333","3","11","ENSSSCG00000005944","true","false","","Unclustered","2.0","IPECJ2_ENSSSCG00000005944","3.33333333","3","0","IPEC_J2","0","0.77614796","false","0","N-myc downstream regulated 1 [Source:HGNC Symbol;Acc:HGNC:7679]","IPECJ2_ENSSSCG00000005944","5858","0.42857143"
"89","3.8622449","0.00299707","0.25891678","0.75","16","10","XLOC_010959","true","false","Cluster 5","Clustered","11.736263736263735","IPECJ2_XLOC_010959","30.0625","16","0","IPEC_J2","0","0.82110969","true","0","Unknown","IPECJ2_XLOC_010959","10910","0.46972656"
"90","3.67346939","0.00405497","0.27222222","0.71076923","26","10","XLOC_011183","true","false","Cluster 1","Clustered","15.895424836601308","IPECJ2_XLOC_011183","30.61538462","26","0","IPEC_J2","0","0.83290816","true","0","Inosine triphosphate pyrophosphatase OS=Bos taurus GN=ITPA PE=2 SV=1","IPECJ2_XLOC_011183","14476","0.44370123"
"91","1.5","0.0","0.66666667","0.0","1","2","XLOC_010577","true","false","","Unclustered","0.0","IPECJ2_XLOC_010577","2.0","1","0","IPEC_J2","0","0.75","false","0","Splicing regulatory glutamine/lysine-rich protein 1 OS=Homo sapiens GN=SREK1 PE=1 SV=1","IPECJ2_XLOC_010577","0","0.0"
"92","1.5","0.0","0.66666667","0.0","1","2","ENSSSCG00000005481","true","false","","Unclustered","0.0","IPECJ2_ENSSSCG00000005481","2.0","1","0","IPEC_J2","0","0.75","false","0","Unknown","IPECJ2_ENSSSCG00000005481","0","0.0"
"93","1.0","1.0","1.0","0.0","2","1","XLOC_010852","true","false","","Unclustered","0.6666666666666666","IPECJ2_XLOC_010852","1.0","2","0","IPEC_J2","0","1.0","false","0","Unknown","IPECJ2_XLOC_010852","2","0.0"
"94","4.35204082","3.0636E-4","0.22977726","0.64285714","8","10","XLOC_010223","true","false","","Unclustered","4.761904761904762","IPECJ2_XLOC_010223","15.625","8","0","IPEC_J2","0","0.79049745","false","0","Uncharacterized protein OS=Sus scrofa GN=AGFG1 PE=1 SV=1","IPECJ2_XLOC_010223","506","0.52083333"
"95","3.19897959","0.05296101","0.31259968","0.35","16","10","ENSSSCG00000016835","true","false","","Unclustered","5.785714285714286","IPECJ2_ENSSSCG00000016835","21.375","16","0","IPEC_J2","0","0.86256378","false","0","S-phase kinase-associated protein 2, E3 ubiquitin protein ligase [Source:HGNC Symbol;Acc:HGNC:10901]","IPECJ2_ENSSSCG00000016835","39130","0.2342033"
"96","3.39795918","0.00349312","0.29429429","0.67857143","8","10","XLOC_009159","true","false","","Unclustered","4.464285714285714","IPECJ2_XLOC_009159","26.25","8","0","IPEC_J2","0","0.85012755","false","0","Unknown","IPECJ2_XLOC_009159","2750","0.36971831"
"97","4.19897959","0.02324739","0.2381531","0.6","5","10","ENSSSCG00000005173","true","false","Cluster 8","Clustered","2.7","IPECJ2_ENSSSCG00000005173","9.8","5","0","IPEC_J2","0","0.80006378","false","0","HAUS augmin like complex subunit 6 [Source:HGNC Symbol;Acc:HGNC:25948]","IPECJ2_ENSSSCG00000005173","21594","0.28"
"98","3.71428571","0.02715376","0.26923077","0.57142857","15","10","ENSSSCG00000016395","true","false","","Unclustered","9.0","IPECJ2_ENSSSCG00000016395","28.4","15","0","IPEC_J2","0","0.83035714","false","0","replication timing regulatory factor 1 [Source:HGNC Symbol;Acc:HGNC:23207]","IPECJ2_ENSSSCG00000016395","24418","0.4"
"99","1.0","0.0","1.0","0.0","1","1","ENSSSCG00000016147","true","false","","Unclustered","0.0","IPECJ2_ENSSSCG00000016147","1.0","1","0","IPEC_J2","0","1.0","false","0","phosphoinositide kinase, FYVE-type zinc finger containing [Source:HGNC Symbol;Acc:HGNC:23785]","IPECJ2_ENSSSCG00000016147","0","0.0"
"100","4.93877551","0.07522734","0.20247934","0.33333333","6","12","ENSSSCG00000005097","true","false","Cluster 6","Clustered","3.0","IPECJ2_ENSSSCG00000005097","4.33333333","6","0","IPEC_J2","0","0.75382653","false","0","small nuclear RNA activating complex polypeptide 1 [Source:HGNC Symbol;Acc:HGNC:11134]","IPECJ2_ENSSSCG00000005097","35668","0.27083333"
"101","3.42346939","0.00520992","0.29210134","0.61538462","26","9","XLOC_007562","true","false","Cluster 2","Clustered","12.674999999999999","IPECJ2_XLOC_007562","33.84615385","26","0","IPEC_J2","0","0.84853316","true","0","Unknown","IPECJ2_XLOC_007562","7776","0.4029304"
"102","6.98979592","0.0","0.14306569","0.0","1","13","ENSSSCG00000016196","true","false","","Unclustered","0.0","IPECJ2_ENSSSCG00000016196","2.0","1","0","IPEC_J2","0","0.62563776","false","0","villin 1 [Source:HGNC Symbol;Acc:HGNC:12690]","IPECJ2_ENSSSCG00000016196","0","0.0"
"103","4.08673469","6.3494E-4","0.24469413","0.81818182","12","10","ENSSSCG00000016098","true","false","","Unclustered","10.0","IPECJ2_ENSSSCG00000016098","24.33333333","12","0","IPEC_J2","0","0.80707908","false","0","Unknown","IPECJ2_ENSSSCG00000016098","3832","0.54074074"
"104","3.44387755","0.0020423","0.29037037","0.6733871","32","9","ENSSSCG00000004970","true","false","Cluster 1","Clustered","16.433333333333334","IPECJ2_ENSSSCG00000004970","33.15625","32","0","IPEC_J2","0","0.84725765","true","0","Unknown","IPECJ2_ENSSSCG00000004970","3206","0.40933642"
"105","3.29081633","0.00347518","0.30387597","0.65441176","17","9","XLOC_005381","true","false","Cluster 9","Clustered","9.615384615384615","IPECJ2_XLOC_005381","34.05882353","17","0","IPEC_J2","0","0.85682398","false","0","Unknown","IPECJ2_XLOC_005381","4926","0.40546218"
"106","4.12244898","0.01714584","0.24257426","0.66666667","7","11","ENSSSCG00000015972","true","false","Cluster 7","Seed","3.0","IPECJ2_ENSSSCG00000015972","7.42857143","7","0","IPEC_J2","0","0.80484694","false","0","Unknown","IPECJ2_ENSSSCG00000015972","21478","0.39097744"
"107","3.56122449","0.00440819","0.28080229","0.5","5","10","ENSSSCG00000004941","true","false","","Unclustered","3.0","IPECJ2_ENSSSCG00000004941","12.2","5","0","IPEC_J2","0","0.83992347","false","0","DIS3 like exosome 3'-5' exoribonuclease [Source:HGNC Symbol;Acc:HGNC:28698]","IPECJ2_ENSSSCG00000004941","5490","0.32972973"
"108","3.21428571","0.00421174","0.31111111","0.62333333","25","9","ENSSSCG00000015786","true","false","Cluster 2","Clustered","12.330882352941176","IPECJ2_ENSSSCG00000015786","34.12","25","0","IPEC_J2","0","0.86160714","true","0","Unknown","IPECJ2_ENSSSCG00000015786","5830","0.35175258"
"109","3.82142857","0.0039322","0.26168224","0.66666667","4","10","ENSSSCG00000004639","true","false","","Unclustered","3.0","IPECJ2_ENSSSCG00000004639","12.5","4","0","IPEC_J2","0","0.82366071","false","0","ubiquitin specific peptidase 8 [Source:HGNC Symbol;Acc:HGNC:12631]","IPECJ2_ENSSSCG00000004639","2778","0.35714286"
"110","1.66666667","0.0","0.6","0.0","1","2","XLOC_001547","true","false","","Unclustered","0.0","IPECJ2_XLOC_001547","3.0","1","0","IPEC_J2","0","0.66666667","false","0","Unknown","IPECJ2_XLOC_001547","0","0.0"
"111","5.62244898","0.04733361","0.17785844","0.2","5","13","ENSSSCG00000015497","true","false","Cluster 13","Clustered","1.6666666666666667","IPECJ2_ENSSSCG00000015497","4.6","5","0","IPEC_J2","0","0.71109694","false","0","kelch like family member 20 [Source:HGNC Symbol;Acc:HGNC:25056]","IPECJ2_ENSSSCG00000015497","46410","0.2625"
"112","1.0","0.0","1.0","0.0","1","1","ENSSSCG00000004625","true","false","","Unclustered","0.0","IPECJ2_ENSSSCG00000004625","1.0","1","0","IPEC_J2","0","1.0","false","0","LEO1 homolog, Paf1/RNA polymerase II complex component [Source:HGNC Symbol;Acc:HGNC:30401]","IPECJ2_ENSSSCG00000004625","0","0.0"
"113","3.27040816","0.00445914","0.30577223","0.66666667","9","9","ENSSSCG00000015386","true","false","Cluster 4","Clustered","4.464285714285714","IPECJ2_ENSSSCG00000015386","27.44444444","9","0","IPEC_J2","0","0.85809949","true","0","family with sequence similarity 126 member A [Source:HGNC Symbol;Acc:HGNC:24587]","IPECJ2_ENSSSCG00000015386","5636","0.3015873"
"114","3.73979592","0.00463216","0.26739427","0.53333333","6","10","ENSSSCG00000015201","true","false","Cluster 4","Clustered","4.0","IPECJ2_ENSSSCG00000015201","10.33333333","6","0","IPEC_J2","0","0.82876276","true","0","Uncharacterized protein OS=Sus scrofa GN=MSANTD2 PE=4 SV=1","IPECJ2_ENSSSCG00000015201","2666","0.31770833"
"115","4.08163265","0.06605901","0.245","0.38095238","7","10","XLOC_000015","true","false","","Unclustered","2.0","IPECJ2_XLOC_000015","9.14285714","7","0","IPEC_J2","0","0.80739796","false","0","Mitochondrial pyruvate carrier 1 OS=Bos taurus GN=MPC1 PE=1 SV=1","IPECJ2_XLOC_000015","50486","0.21428571"
"116","3.99489796","0.02745395","0.25031928","0.4","5","10","ENSSSCG00000031053","true","false","Cluster 8","Seed","3.0","IPECJ2_ENSSSCG00000031053","8.0","5","0","IPEC_J2","0","0.81281888","false","0","Unknown","IPECJ2_ENSSSCG00000031053","9948","0.28888889"
"117","1.0","0.0","1.0","0.0","1","1","ENSSSCG00000030731","true","false","","Unclustered","0.0","IPECJ2_ENSSSCG00000030731","1.0","1","0","IPEC_J2","0","1.0","false","0","Unknown","IPECJ2_ENSSSCG00000030731","0","0.0"
"118","1.0","0.0","1.0","0.0","1","1","ENSSSCG00000004364","true","false","","Unclustered","0.0","IPECJ2_ENSSSCG00000004364","1.0","1","0","IPEC_J2","0","1.0","false","0","E3 ubiquitin-protein ligase HACE1  [Source:RefSeq peptide;Acc:NP_001182269]","IPECJ2_ENSSSCG00000004364","0","0.0"
"119","4.79081633","0.0402833","0.20873269","0.3","5","11","ENSSSCG00000015073","true","false","","Unclustered","3.0","IPECJ2_ENSSSCG00000015073","4.4","5","0","IPEC_J2","0","0.76307398","false","0","transgelin [Source:HGNC Symbol;Acc:HGNC:11553]","IPECJ2_ENSSSCG00000015073","29076","0.33333333"
"120","4.96428571","0.01545449","0.20143885","0.33333333","3","12","ENSSSCG00000014623","true","false","","Unclustered","2.0","IPECJ2_ENSSSCG00000014623","4.0","3","0","IPEC_J2","0","0.75223214","false","0","translocase of inner mitochondrial membrane 10 homolog B (yeast) [Source:HGNC Symbol;Acc:HGNC:4022]","IPECJ2_ENSSSCG00000014623","5978","0.40740741"
"121","3.08163265","0.03087828","0.32450331","0.38333333","16","9","ENSSSCG00000014283","true","false","","Unclustered","2.802197802197802","IPECJ2_ENSSSCG00000014283","22.5","16","0","IPEC_J2","0","0.86989796","false","0","kinesin family member 3A [Source:HGNC Symbol;Acc:HGNC:6319]","IPECJ2_ENSSSCG00000014283","19642","0.21428571"
"122","4.53061224","7.3828E-4","0.22072072","0.0","2","11","ENSSSCG00000030018","true","false","","Unclustered","0.6666666666666666","IPECJ2_ENSSSCG00000030018","6.5","2","0","IPEC_J2","0","0.77933673","false","0","zinc finger protein 396 [Source:HGNC Symbol;Acc:HGNC:18824]","IPECJ2_ENSSSCG00000030018","264","0.55"
"123","6.60714286","0.01017792","0.15135135","0.5","4","14","ENSSSCG00000014204","true","false","","Unclustered","1.4","IPECJ2_ENSSSCG00000014204","4.25","4","0","IPEC_J2","0","0.64955357","false","0","decapping mRNA 2 [Source:HGNC Symbol;Acc:HGNC:24452]","IPECJ2_ENSSSCG00000014204","7146","0.38636364"
"124","3.42346939","0.00309493","0.29210134","0.67692308","26","9","ENSSSCG00000014177","true","false","Cluster 2","Clustered","14.052631578947368","IPECJ2_ENSSSCG00000014177","35.76923077","26","0","IPEC_J2","0","0.84853316","true","0","chromodomain helicase DNA binding protein 1 [Source:HGNC Symbol;Acc:HGNC:1915]","IPECJ2_ENSSSCG00000014177","4648","0.42582418"
"125","3.25510204","0.002907","0.30721003","0.64295875","38","9","ENSSSCG00000029830","true","false","Cluster 1","Clustered","15.846153846153847","IPECJ2_ENSSSCG00000029830","36.68421053","38","0","IPEC_J2","0","0.85905612","true","0","ribosomal protein L8 [Source:HGNC Symbol;Acc:HGNC:10368]","IPECJ2_ENSSSCG00000029830","9198","0.39874142"
"126","3.32653061","0.00643051","0.3006135","0.66137566","28","9","ENSSSCG00000029855","true","false","Cluster 2","Clustered","14.406926406926408","IPECJ2_ENSSSCG00000029855","31.92857143","28","0","IPEC_J2","0","0.85459184","true","0","lipoma HMGIC fusion partner [Source:HGNC Symbol;Acc:HGNC:6586]","IPECJ2_ENSSSCG00000029855","10876","0.38937282"
"127","1.0","0.0","1.0","1.0","2","1","ENSSSCG00000003807","true","false","Cluster 12","Seed","2.0","IPECJ2_ENSSSCG00000003807","2.0","2","0","IPEC_J2","0","1.0","false","0","DnaJ heat shock protein family (Hsp40) member C6 [Source:HGNC Symbol;Acc:HGNC:15469]","IPECJ2_ENSSSCG00000003807","0","1.0"
"128","3.36734694","0.16682287","0.2969697","0.17857143","8","10","ENSSSCG00000014114","true","false","","Unclustered","0.8571428571428571","IPECJ2_ENSSSCG00000014114","7.375","8","0","IPEC_J2","0","0.85204082","false","0","poly(A) RNA polymerase D4, non-canonical [Source:HGNC Symbol;Acc:HGNC:26776]","IPECJ2_ENSSSCG00000014114","72550","0.18125"
"129","4.08163265","0.09216674","0.245","0.44444444","9","11","ENSSSCG00000003727","true","false","Cluster 7","Clustered","3.0","IPECJ2_ENSSSCG00000003727","6.77777778","9","0","IPEC_J2","0","0.80739796","false","0","Isoform 2 of Trafficking protein particle complex subunit 8 OS=Homo sapiens GN=TRAPPC8","IPECJ2_ENSSSCG00000003727","77056","0.31746032"
"130","3.83163265","0.00640392","0.26098535","0.57142857","7","9","ENSSSCG00000003716","true","false","","Unclustered","3.7333333333333334","IPECJ2_ENSSSCG00000003716","15.71428571","7","0","IPEC_J2","0","0.82302296","false","0","SS18, nBAF chromatin remodeling complex subunit [Source:HGNC Symbol;Acc:HGNC:11340]","IPECJ2_ENSSSCG00000003716","3548","0.41353383"
"131","3.17346939","0.07973573","0.31511254","0.45833333","16","9","ENSSSCG00000003772","true","false","","Unclustered","6.377777777777777","IPECJ2_ENSSSCG00000003772","26.3125","16","0","IPEC_J2","0","0.86415816","false","0","zinc finger ZZ-type containing 3 [Source:HGNC Symbol;Acc:HGNC:24523]","IPECJ2_ENSSSCG00000003772","51296","0.31701807"
"132","3.69897959","4.152E-4","0.27034483","0.71428571","8","10","ENSSSCG00000014044","true","false","","Unclustered","6.0","IPECJ2_ENSSSCG00000014044","24.25","8","0","IPEC_J2","0","0.83131378","false","0","nuclear receptor binding SET domain protein 1 [Source:HGNC Symbol;Acc:HGNC:14234]","IPECJ2_ENSSSCG00000014044","332","0.44907407"
"133","3.63265306","0.03479838","0.2752809","0.46428571","8","10","ENSSSCG00000003670","true","false","Cluster 4","Clustered","4.0","IPECJ2_ENSSSCG00000003670","9.25","8","0","IPEC_J2","0","0.83545918","true","0","rearranged L-myc fusion [Source:HGNC Symbol;Acc:HGNC:10025]","IPECJ2_ENSSSCG00000003670","36400","0.27205882"
"134","3.78061224","0.00382719","0.26450742","0.69473684","20","10","ENSSSCG00000014076","true","false","Cluster 5","Clustered","13.0","IPECJ2_ENSSSCG00000014076","25.3","20","0","IPEC_J2","0","0.82621173","true","0","Isoform 2 of Soluble lamin-associated protein of 75 kDa OS=Homo sapiens GN=FAM169A","IPECJ2_ENSSSCG00000014076","11404","0.4147541"
"135","3.4744898","0.01124537","0.28781204","0.36111111","9","9","ENSSSCG00000003464","true","false","","Unclustered","1.6666666666666667","IPECJ2_ENSSSCG00000003464","12.77777778","9","0","IPEC_J2","0","0.84534439","false","0","DnaJ heat shock protein family (Hsp40) member C16 [Source:HGNC Symbol;Acc:HGNC:29157]","IPECJ2_ENSSSCG00000003464","5480","0.22417154"
"136","5.87755102","0.0","0.17013889","0.0","1","13","ENSSSCG00000003462","true","false","","Unclustered","0.0","IPECJ2_ENSSSCG00000003462","3.0","1","0","IPEC_J2","0","0.69515306","false","0","DNA damage inducible 1 homolog 2 [Source:HGNC Symbol;Acc:HGNC:24578]","IPECJ2_ENSSSCG00000003462","0","0.0"
"137","3.32142857","0.00270929","0.30107527","0.67526882","31","9","ENSSSCG00000013619","true","false","Cluster 2","Clustered","13.39076923076923","IPECJ2_ENSSSCG00000013619","34.74193548","31","0","IPEC_J2","0","0.85491071","true","0","SWIM-type zinc finger 7 associated protein 1 [Source:HGNC Symbol;Acc:HGNC:26638]","IPECJ2_ENSSSCG00000013619","4658","0.40397599"
"138","2.97959184","0.05148281","0.33561644","0.55510204","50","8","ENSSSCG00000029362","true","false","Cluster 1","Clustered","15.714285714285714","IPECJ2_ENSSSCG00000029362","34.78","50","0","IPEC_J2","0","0.87627551","true","0","charged multivesicular body protein 2A [Source:HGNC Symbol;Acc:HGNC:30216]","IPECJ2_ENSSSCG00000029362","40948","0.36610526"
"139","3.18877551","0.00950917","0.3136","0.58357488","46","9","ENSSSCG00000029161","true","false","Cluster 1","Clustered","16.935483870967744","IPECJ2_ENSSSCG00000029161","35.36956522","46","0","IPEC_J2","0","0.86320153","true","0","acireductone dioxygenase 1 [Source:HGNC Symbol;Acc:HGNC:30576]","IPECJ2_ENSSSCG00000029161","19020","0.36843297"
"140","3.70918367","0.00202829","0.2696011","0.33333333","6","10","ENSSSCG00000013453","true","false","","Unclustered","1.0476190476190477","IPECJ2_ENSSSCG00000013453","11.66666667","6","0","IPEC_J2","0","0.83067602","false","0","Uncharacterized protein OS=Sus scrofa GN=PLEKHJ1 PE=4 SV=1","IPECJ2_ENSSSCG00000013453","1424","0.28455285"
"141","5.2755102","0.00616333","0.18955513","0.33333333","3","12","ENSSSCG00000003015","true","false","","Unclustered","2.0","IPECJ2_ENSSSCG00000003015","3.66666667","3","0","IPEC_J2","0","0.73278061","false","0","Unknown","IPECJ2_ENSSSCG00000003015","2990","0.47619048"
"142","3.19897959","0.00470842","0.31259968","0.60233918","19","9","ENSSSCG00000003080","true","false","Cluster 9","Clustered","9.848484848484848","IPECJ2_ENSSSCG00000003080","31.21052632","19","0","IPEC_J2","0","0.86256378","false","0","immunoglobulin superfamily member 23 [Source:HGNC Symbol;Acc:HGNC:40040]","IPECJ2_ENSSSCG00000003080","4504","0.37603044"
"143","4.07142857","2.2776E-4","0.24561404","0.33333333","3","10","ENSSSCG00000013402","true","false","","Unclustered","2.0","IPECJ2_ENSSSCG00000013402","27.0","3","0","IPEC_J2","0","0.80803571","false","0","Unknown","IPECJ2_ENSSSCG00000013402","328","0.57971014"
"144","3.06632653","0.01721021","0.32612313","0.53741497","49","9","ENSSSCG00000013267","true","false","Cluster 1","Clustered","17.204301075268816","IPECJ2_ENSSSCG00000013267","33.97959184","49","0","IPEC_J2","0","0.87085459","true","0","peroxisomal biogenesis factor 16 [Source:HGNC Symbol;Acc:HGNC:8857]","IPECJ2_ENSSSCG00000013267","31798","0.3364316"
"145","3.30102041","0.03496582","0.30293663","0.47272727","11","9","ENSSSCG00000002646","true","false","","Unclustered","5.785714285714286","IPECJ2_ENSSSCG00000002646","32.0","11","0","IPEC_J2","0","0.85618622","false","0","trafficking protein particle complex 2 like [Source:HGNC Symbol;Acc:HGNC:30887]","IPECJ2_ENSSSCG00000002646","23740","0.33945841"
"146","3.12755102","0.01284401","0.31973899","0.5920444","47","9","ENSSSCG00000012965","true","false","Cluster 1","Clustered","15.714285714285714","IPECJ2_ENSSSCG00000012965","35.31914894","47","0","IPEC_J2","0","0.86702806","true","0","DR1 associated protein 1 [Source:HGNC Symbol;Acc:HGNC:3019]","IPECJ2_ENSSSCG00000012965","21220","0.37178052"
"147","3.24489796","0.00571744","0.3081761","0.70766129","32","9","ENSSSCG00000012960","true","false","Cluster 1","Clustered","16.283076923076923","IPECJ2_ENSSSCG00000012960","36.90625","32","0","IPEC_J2","0","0.85969388","true","0","cystatin E/M [Source:HGNC Symbol;Acc:HGNC:2478]","IPECJ2_ENSSSCG00000012960","8356","0.41006944"
"148","3.42857143","5.0151E-4","0.29166667","0.86549708","19","9","ENSSSCG00000013002","true","false","","Unclustered","15.0","IPECJ2_ENSSSCG00000013002","38.94736842","19","0","IPEC_J2","0","0.84821429","false","0","FAU, ubiquitin like and ribosomal protein S30 fusion [Source:HGNC Symbol;Acc:HGNC:3597]","IPECJ2_ENSSSCG00000013002","1586","0.46365915"
"149","4.68877551","6.9395E-4","0.2132753","0.83333333","4","11","ENSSSCG00000002502","true","false","Cluster 3","Clustered","2.7","IPECJ2_ENSSSCG00000002502","4.5","4","0","IPEC_J2","0","0.76945153","false","0","autophagy related 2B [Source:HGNC Symbol;Acc:HGNC:20187]","IPECJ2_ENSSSCG00000002502","236","0.5625"
"150","4.33163265","0.01784571","0.23085984","0.33333333","4","11","ENSSSCG00000028378","true","false","","Unclustered","1.6666666666666667","IPECJ2_ENSSSCG00000028378","8.25","4","0","IPEC_J2","0","0.79177296","false","0","Unknown","IPECJ2_ENSSSCG00000028378","10352","0.38095238"
"151","6.75","0.0","0.14814815","1.0","2","14","ENSSSCG00000002387","true","false","","Unclustered","2.0","IPECJ2_ENSSSCG00000002387","5.0","2","0","IPEC_J2","0","0.640625","false","0","G-patch domain containing 2 like [Source:HGNC Symbol;Acc:HGNC:20210]","IPECJ2_ENSSSCG00000002387","0","0.71428571"
"152","3.45408163","0.00159951","0.28951256","0.77230769","26","9","ENSSSCG00000012916","true","false","Cluster 1","Clustered","16.514285714285712","IPECJ2_ENSSSCG00000012916","38.15384615","26","0","IPEC_J2","0","0.8466199","true","0","Unknown","IPECJ2_ENSSSCG00000012916","3040","0.46529081"
"153","3.39795918","0.00830871","0.29429429","0.58441558","22","10","ENSSSCG00000012905","true","false","","Unclustered","10.941176470588236","IPECJ2_ENSSSCG00000012905","27.72727273","22","0","IPEC_J2","0","0.85012755","false","0","transmembrane protein 134 [Source:HGNC Symbol;Acc:HGNC:26142]","IPECJ2_ENSSSCG00000012905","14644","0.34231201"
"154","3.12755102","0.01250245","0.31973899","0.61616162","45","9","ENSSSCG00000012784","true","false","Cluster 1","Clustered","15.714285714285714","IPECJ2_ENSSSCG00000012784","36.22222222","45","0","IPEC_J2","0","0.86702806","true","0","signal sequence receptor subunit 4 [Source:HGNC Symbol;Acc:HGNC:11326]","IPECJ2_ENSSSCG00000012784","22854","0.37342497"
"155","3.35204082","0.01234246","0.29832572","0.74358974","27","9","ENSSSCG00000012727","true","false","Cluster 1","Clustered","17.14624505928854","IPECJ2_ENSSSCG00000012727","37.96296296","27","0","IPEC_J2","0","0.85299745","true","0","fragile X mental retardation 1 [Source:HGNC Symbol;Acc:HGNC:3775]","IPECJ2_ENSSSCG00000012727","7156","0.44662309"
"156","3.2755102","0.00395269","0.30529595","0.6966967","37","9","ENSSSCG00000012842","true","false","Cluster 1","Clustered","18.933333333333334","IPECJ2_ENSSSCG00000012842","37.78378378","37","0","IPEC_J2","0","0.85778061","true","0","Unknown","IPECJ2_ENSSSCG00000012842","7774","0.4245369"
"157","3.17857143","0.00954296","0.31460674","0.59903382","46","9","ENSSSCG00000027971","true","false","Cluster 1","Clustered","18.14814814814815","IPECJ2_ENSSSCG00000027971","35.2826087","46","0","IPEC_J2","0","0.86383929","true","0","regulatory factor X associated ankyrin containing protein [Source:HGNC Symbol;Acc:HGNC:9987]","IPECJ2_ENSSSCG00000027971","20018","0.38350662"
"158","3.42857143","0.02994016","0.29166667","0.42857143","7","10","ENSSSCG00000028100","true","false","","Unclustered","4.0","IPECJ2_ENSSSCG00000028100","18.28571429","7","0","IPEC_J2","0","0.84821429","false","0","Unknown","IPECJ2_ENSSSCG00000028100","13292","0.34231806"
"159","3.90306122","0.03054627","0.25620915","0.16666667","4","11","ENSSSCG00000012556","true","false","Cluster 14","Seed","2.0","IPECJ2_ENSSSCG00000012556","7.0","4","0","IPEC_J2","0","0.81855867","false","0","RNA binding motif protein 41 [Source:HGNC Symbol;Acc:HGNC:25617]","IPECJ2_ENSSSCG00000012556","17466","0.2826087"
"160","3.85204082","0.00216551","0.25960265","0.76470588","18","10","ENSSSCG00000001922","true","false","Cluster 5","Clustered","13.0","IPECJ2_ENSSSCG00000001922","26.22222222","18","0","IPEC_J2","0","0.82174745","true","0","ariadne RBR E3 ubiquitin protein ligase 1 [Source:HGNC Symbol;Acc:HGNC:689]","IPECJ2_ENSSSCG00000001922","9772","0.44444444"
"161","4.1377551","0.03255255","0.24167694","0.2","5","11","ENSSSCG00000012624","true","false","","Unclustered","1.6666666666666667","IPECJ2_ENSSSCG00000012624","4.8","5","0","IPEC_J2","0","0.80389031","false","0","solute carrier family 25 member 43 [Source:HGNC Symbol;Acc:HGNC:30557]","IPECJ2_ENSSSCG00000012624","13302","0.24444444"
"162","3.2755102","0.00742872","0.30529595","0.63022942","39","9","ENSSSCG00000027840","true","false","Cluster 1","Clustered","17.15954415954416","IPECJ2_ENSSSCG00000027840","34.38461538","39","0","IPEC_J2","0","0.85778061","true","0","Unknown","IPECJ2_ENSSSCG00000027840","9794","0.39522546"
"163","3.37755102","0.00314587","0.29607251","0.77536232","24","9","ENSSSCG00000027827","true","false","Cluster 2","Clustered","14.337662337662337","IPECJ2_ENSSSCG00000027827","34.70833333","24","0","IPEC_J2","0","0.85140306","true","0","UDP-galactose-4-epimerase [Source:HGNC Symbol;Acc:HGNC:4116]","IPECJ2_ENSSSCG00000027827","6892","0.42849794"
"164","3.16836735","0.01776855","0.31561997","0.59102564","40","9","ENSSSCG00000001884","true","false","Cluster 1","Clustered","16.332512315270936","IPECJ2_ENSSSCG00000001884","35.35","40","0","IPEC_J2","0","0.86447704","true","0","COMM domain containing 4 [Source:HGNC Symbol;Acc:HGNC:26027]","IPECJ2_ENSSSCG00000001884","20420","0.36071429"
"165","1.0","0.0","1.0","0.0","1","1","ENSSSCG00000027700","true","false","","Unclustered","0.0","IPECJ2_ENSSSCG00000027700","1.0","1","0","IPEC_J2","0","1.0","false","0","regulation of nuclear pre-mRNA domain containing 1A [Source:HGNC Symbol;Acc:HGNC:25560]","IPECJ2_ENSSSCG00000027700","0","0.0"
"166","3.79081633","2.9319E-4","0.26379542","0.83333333","9","9","ENSSSCG00000027573","true","false","","Unclustered","5.2","IPECJ2_ENSSSCG00000027573","31.11111111","9","0","IPEC_J2","0","0.82557398","false","0","ribosomal protein L29 [Source:HGNC Symbol;Acc:HGNC:10331]","IPECJ2_ENSSSCG00000027573","566","0.51001821"
"167","5.7755102","0.01496158","0.17314488","0.33333333","4","13","ENSSSCG00000011953","true","false","","Unclustered","1.6666666666666667","IPECJ2_ENSSSCG00000011953","4.0","4","0","IPEC_J2","0","0.70153061","false","0","zinc finger and BTB domain containing 11 [Source:HGNC Symbol;Acc:HGNC:16740]","IPECJ2_ENSSSCG00000011953","15768","0.375"
"168","1.0","0.0","1.0","0.0","1","1","ENSSSCG00000027575","true","false","","Unclustered","0.0","IPECJ2_ENSSSCG00000027575","1.0","1","0","IPEC_J2","0","1.0","false","0","RELB proto-oncogene, NF-kB subunit [Source:HGNC Symbol;Acc:HGNC:9956]","IPECJ2_ENSSSCG00000027575","0","0.0"
"169","5.95918367","0.0","0.16780822","1.0","2","13","ENSSSCG00000011874","true","false","","Unclustered","2.0","IPECJ2_ENSSSCG00000011874","5.0","2","0","IPEC_J2","0","0.69005102","false","0","poly(ADP-ribose) polymerase family member 14 [Source:HGNC Symbol;Acc:HGNC:29232]","IPECJ2_ENSSSCG00000011874","0","0.71428571"
"170","5.7244898","0.01020408","0.17468806","0.5","4","12","ENSSSCG00000027527","true","false","","Unclustered","3.0","IPECJ2_ENSSSCG00000027527","4.0","4","0","IPEC_J2","0","0.70471939","false","0","Unknown","IPECJ2_ENSSSCG00000027527","6314","0.53571429"
"171","4.12755102","0.0165955","0.24227441","0.73333333","6","11","ENSSSCG00000011857","true","false","Cluster 10","Clustered","3.238095238095238","IPECJ2_ENSSSCG00000011857","7.83333333","6","0","IPEC_J2","0","0.80452806","false","0","leishmanolysin like peptidase [Source:HGNC Symbol;Acc:HGNC:15991]","IPECJ2_ENSSSCG00000011857","21256","0.4122807"
"172","4.46428571","0.02030351","0.224","0.33333333","3","10","ENSSSCG00000011862","true","false","Cluster 15","Seed","2.0","IPECJ2_ENSSSCG00000011862","4.33333333","3","0","IPEC_J2","0","0.78348214","false","0","mucin-13  [Source:RefSeq peptide;Acc:NP_001098763]","IPECJ2_ENSSSCG00000011862","5160","0.4"
"173","3.18877551","0.00537245","0.3136","0.67852063","38","9","ENSSSCG00000001423","true","false","Cluster 1","Clustered","16.13978494623656","IPECJ2_ENSSSCG00000001423","37.13157895","38","0","IPEC_J2","0","0.86320153","true","0","negative elongation factor complex member E [Source:HGNC Symbol;Acc:HGNC:13974]","IPECJ2_ENSSSCG00000001423","11058","0.39085873"
"174","3.23979592","0.01117632","0.30866142","0.62521008","35","9","ENSSSCG00000027353","true","false","Cluster 1","Clustered","18.0","IPECJ2_ENSSSCG00000027353","33.11428571","35","0","IPEC_J2","0","0.86001276","true","0","Unknown","IPECJ2_ENSSSCG00000027353","19650","0.37207063"
"175","4.60714286","4.963E-5","0.21705426","0.75","8","11","ENSSSCG00000011825","true","false","","Unclustered","4.464285714285714","IPECJ2_ENSSSCG00000011825","17.375","8","0","IPEC_J2","0","0.77455357","false","0","ATPase 13A3 [Source:HGNC Symbol;Acc:HGNC:24113]","IPECJ2_ENSSSCG00000011825","18","0.56048387"
"176","5.85204082","0.0","0.17088056","1.0","2","13","ENSSSCG00000027410","true","false","","Unclustered","2.0","IPECJ2_ENSSSCG00000027410","4.0","2","0","IPEC_J2","0","0.69674745","false","0","CBFA2/RUNX1 translocation partner 2 [Source:HGNC Symbol;Acc:HGNC:1536]","IPECJ2_ENSSSCG00000027410","0","0.66666667"
"177","3.44897959","2.2074E-4","0.28994083","0.84415584","22","9","ENSSSCG00000027308","true","false","Cluster 2","Clustered","13.181818181818182","IPECJ2_ENSSSCG00000027308","36.27272727","22","0","IPEC_J2","0","0.84693878","true","0","Unknown","IPECJ2_ENSSSCG00000027308","584","0.47107438"
"178","3.85714286","9.37E-5","0.25925926","0.89166667","16","10","ENSSSCG00000000921","true","false","Cluster 5","Clustered","13.0","IPECJ2_ENSSSCG00000000921","35.5","16","0","IPEC_J2","0","0.82142857","true","0","Unknown","IPECJ2_ENSSSCG00000000921","88","0.54615385"
"179","5.05612245","0.02030351","0.19778002","0.0","2","11","ENSSSCG00000027248","true","false","","Unclustered","0.6666666666666666","IPECJ2_ENSSSCG00000027248","4.5","2","0","IPEC_J2","0","0.74649235","false","0","Unknown","IPECJ2_ENSSSCG00000027248","10764","0.5"
"180","1.5","0.0","0.66666667","0.0","1","2","ENSSSCG00000027223","true","false","","Unclustered","0.0","IPECJ2_ENSSSCG00000027223","2.0","1","0","IPEC_J2","0","0.75","false","0","THAP domain containing 1 [Source:HGNC Symbol;Acc:HGNC:20856]","IPECJ2_ENSSSCG00000027223","0","0.0"
"181","3.42857143","0.00266516","0.29166667","0.5","8","9","ENSSSCG00000000769","true","false","Cluster 4","Clustered","5.0","IPECJ2_ENSSSCG00000000769","16.625","8","0","IPEC_J2","0","0.84821429","true","0","BH3 interacting domain death agonist [Source:HGNC Symbol;Acc:HGNC:1050]","IPECJ2_ENSSSCG00000000769","1818","0.26388889"
"182","6.32142857","0.0","0.15819209","1.0","2","14","ENSSSCG00000000754","true","false","","Unclustered","2.0","IPECJ2_ENSSSCG00000000754","7.0","2","0","IPEC_J2","0","0.66741071","false","0","RAD52 homolog, DNA repair protein [Source:HGNC Symbol;Acc:HGNC:9824]","IPECJ2_ENSSSCG00000000754","0","0.63636364"
"183","3.34693878","0.00527148","0.29878049","0.64864865","37","9","ENSSSCG00000026914","true","false","Cluster 2","Seed","15.103448275862068","IPECJ2_ENSSSCG00000026914","35.81081081","37","0","IPEC_J2","0","0.85331633","true","0","phospholipase A2 group XVI [Source:HGNC Symbol;Acc:HGNC:17825]","IPECJ2_ENSSSCG00000026914","8224","0.41161852"
"184","3.18877551","0.01103894","0.3136","0.59710145","46","9","ENSSSCG00000026812","true","false","Cluster 1","Clustered","16.25668449197861","IPECJ2_ENSSSCG00000026812","35.32608696","46","0","IPEC_J2","0","0.86320153","true","0","Unknown","IPECJ2_ENSSSCG00000026812","20376","0.3798504"
"185","3.7244898","0.01130359","0.26849315","0.42424242","12","10","ENSSSCG00000011213","true","false","","Unclustered","4.285714285714286","IPECJ2_ENSSSCG00000011213","16.33333333","12","0","IPEC_J2","0","0.82971939","false","0","topoisomerase (DNA) II beta 180kDa  [Source:RefSeq peptide;Acc:NP_001245315]","IPECJ2_ENSSSCG00000011213","6988","0.29166667"
"186","6.6122449","0.0100471","0.15123457","0.66666667","3","14","ENSSSCG00000026731","true","false","","Unclustered","1.6666666666666667","IPECJ2_ENSSSCG00000026731","5.33333333","3","0","IPEC_J2","0","0.64923469","false","0","centrosomal protein 85 [Source:HGNC Symbol;Acc:HGNC:25309]","IPECJ2_ENSSSCG00000026731","7140","0.48484848"
"187","6.62244898","0.0","0.15100154","1.0","2","14","ENSSSCG00000011010","true","false","","Unclustered","2.0","IPECJ2_ENSSSCG00000011010","6.5","2","0","IPEC_J2","0","0.64859694","false","0","chromosome 9 open reading frame 72 [Source:HGNC Symbol;Acc:HGNC:28337]","IPECJ2_ENSSSCG00000011010","0","0.65"
"188","5.41836735","0.01257333","0.18455744","0.5","4","12","ENSSSCG00000000508","true","false","","Unclustered","3.0","IPECJ2_ENSSSCG00000000508","4.0","4","0","IPEC_J2","0","0.72385204","false","0","Unknown","IPECJ2_ENSSSCG00000000508","3262","0.53571429"
"189","1.0","0.0","1.0","1.0","2","1","ENSSSCG00000010968","true","false","Cluster 12","Clustered","2.0","IPECJ2_ENSSSCG00000010968","2.0","2","0","IPEC_J2","0","1.0","false","0","interleukin 11 receptor subunit alpha [Source:HGNC Symbol;Acc:HGNC:5967]","IPECJ2_ENSSSCG00000010968","0","1.0"
"190","3.66836735","8.5117E-4","0.27260083","0.79347826","24","10","ENSSSCG00000010865","true","false","Cluster 1","Clustered","15.719298245614034","IPECJ2_ENSSSCG00000010865","33.41666667","24","0","IPEC_J2","0","0.83322704","true","0","exonuclease 1 [Source:HGNC Symbol;Acc:HGNC:3511]","IPECJ2_ENSSSCG00000010865","1458","0.47065728"
"191","6.85204082","0.0","0.14594192","0.0","1","14","ENSSSCG00000000469","true","false","","Unclustered","0.0","IPECJ2_ENSSSCG00000000469","6.0","1","0","IPEC_J2","0","0.63424745","false","0","LEM domain containing 3 [Source:HGNC Symbol;Acc:HGNC:28887]","IPECJ2_ENSSSCG00000000469","0","0.0"
"192","2.87755102","0.04487966","0.34751773","0.47272727","56","9","ENSSSCG00000025928","true","false","Cluster 1","Clustered","16.935483870967744","IPECJ2_ENSSSCG00000025928","32.35714286","56","0","IPEC_J2","0","0.88265306","true","0","ribosomal protein L18 [Source:HGNC Symbol;Acc:HGNC:10310]","IPECJ2_ENSSSCG00000025928","59970","0.31414702"
"193","4.06632653","0.0","0.24592221","1.0","5","10","ENSSSCG00000025869","true","false","","Unclustered","5.0","IPECJ2_ENSSSCG00000025869","32.4","5","0","IPEC_J2","0","0.80835459","false","0","Unknown","IPECJ2_ENSSSCG00000025869","0","0.62307692"
"194","2.87755102","0.04487966","0.34751773","0.47272727","56","9","ENSSSCG00000029034","true","false","Cluster 1","Clustered","16.935483870967744","IPECJ2_ENSSSCG00000029034","32.35714286","56","0","IPEC_J2","0","0.88265306","true","0","cytochrome c oxidase subunit 4I1 [Source:HGNC Symbol;Acc:HGNC:2265]","IPECJ2_ENSSSCG00000029034","59970","0.31414702"
"195","3.04081633","0.03948946","0.32885906","0.53830645","32","9","ENSSSCG00000025868","true","false","Cluster 2","Clustered","13.16205533596838","IPECJ2_ENSSSCG00000025868","32.5625","32","0","IPEC_J2","0","0.87244898","true","0","Unknown","IPECJ2_ENSSSCG00000025868","41420","0.31310096"
"196","4.98469388","0.06014124","0.20061412","0.33333333","4","12","ENSSSCG00000025820","true","false","","Unclustered","1.6666666666666667","IPECJ2_ENSSSCG00000025820","5.25","4","0","IPEC_J2","0","0.75095663","false","0","solute carrier family 15 member 4 [Source:HGNC Symbol;Acc:HGNC:23090]","IPECJ2_ENSSSCG00000025820","43222","0.33333333"
"197","7.20918367","7.7392E-4","0.13871196","0.33333333","3","15","ENSSSCG00000000167","true","false","Cluster 13","Clustered","2.0","IPECJ2_ENSSSCG00000000167","3.0","3","0","IPEC_J2","0","0.61192602","false","0","RIC8 guanine nucleotide exchange factor B [Source:HGNC Symbol;Acc:HGNC:25555]","IPECJ2_ENSSSCG00000000167","212","0.53333333"
"198","5.01020408","0.02030351","0.19959267","0.0","2","11","ENSSSCG00000010644","true","false","","Unclustered","0.6666666666666666","IPECJ2_ENSSSCG00000010644","3.0","2","0","IPEC_J2","0","0.74936224","false","0","Unknown","IPECJ2_ENSSSCG00000010644","9428","0.5"
"199","3.42857143","0.00193704","0.29166667","0.73544974","28","9","ENSSSCG00000010631","true","false","Cluster 1","Clustered","16.55263157894737","IPECJ2_ENSSSCG00000010631","32.5","28","0","IPEC_J2","0","0.84821429","true","0","glycerol-3-phosphate acyltransferase, mitochondrial [Source:HGNC Symbol;Acc:HGNC:24865]","IPECJ2_ENSSSCG00000010631","4398","0.41666667"
"200","4.8877551","0.0","0.2045929","1.0","2","12","XLOC_024104","true","false","Cluster 14","Clustered","2.0","AscL3_XLOC_024104","3.5","2","0","AscL3","0","0.75701531","false","0","Organic solute transporter alpha-like protein OS=Ascaris suum PE=2 SV=1","AscL3_XLOC_024104","0","0.7"
"201","3.17346939","0.01406625","0.31511254","0.61673414","39","9","ENSSSCG00000000061","true","false","Cluster 1","Clustered","16.519704433497537","IPECJ2_ENSSSCG00000000061","35.53846154","39","0","IPEC_J2","0","0.86415816","true","0","phosphomannomutase 1 [Source:HGNC Symbol;Acc:HGNC:9114]","IPECJ2_ENSSSCG00000000061","18164","0.37806874"
"202","1.0","0.0","1.0","0.0","1","1","XLOC_019624","true","false","","Unclustered","0.0","AscL3_XLOC_019624","1.0","1","0","AscL3","0","1.0","false","0","Probable tRNA-splicing endonuclease subunit sen54 OS=Schizosaccharomyces pombe (strain 972 / ATCC 24843) GN=sen54 PE=3 SV=1","AscL3_XLOC_019624","0","0.0"
"203","3.93877551","0.00483653","0.25388601","0.4","6","10","XLOC_021500","true","false","","Unclustered","2.7","AscL3_XLOC_021500","10.33333333","6","0","AscL3","0","0.81632653","false","0","Unknown","AscL3_XLOC_021500","2962","0.28240741"
"204","4.21428571","0.0","0.23728814","1.0","2","11","XLOC_016818","true","false","","Unclustered","2.0","AscL3_XLOC_016818","10.5","2","0","AscL3","0","0.79910714","false","0","Unknown","AscL3_XLOC_016818","0","0.75"
"205","3.48979592","0.05869052","0.28654971","0.41666667","9","9","ENSSSCG00000025293","true","false","Cluster 4","Clustered","5.0","IPECJ2_ENSSSCG00000025293","10.88888889","9","0","IPEC_J2","0","0.84438776","true","0","helicase like transcription factor [Source:HGNC Symbol;Acc:HGNC:11099]","IPECJ2_ENSSSCG00000025293","17704","0.23703704"
"206","4.14285714","0.00948252","0.24137931","0.3","5","11","XLOC_017084","true","false","","Unclustered","1.0666666666666667","AscL3_XLOC_017084","4.6","5","0","AscL3","0","0.80357143","false","0","Unknown","AscL3_XLOC_017084","3764","0.27058824"
"207","3.82653061","0.0","0.26133333","1.0","8","10","ENSSSCG00000025258","true","false","","Unclustered","8.0","IPECJ2_ENSSSCG00000025258","37.75","8","0","IPEC_J2","0","0.82334184","false","0","Unknown","IPECJ2_ENSSSCG00000025258","0","0.56343284"
"208","5.64285714","0.07469724","0.17721519","0.13888889","9","13","XLOC_012561","true","false","","Unclustered","0.7222222222222222","AscL3_XLOC_012561","3.44444444","9","0","AscL3","0","0.70982143","false","0","Unknown","AscL3_XLOC_012561","33294","0.18518519"
"209","4.10204082","0.0143032","0.24378109","0.5","5","10","ENSSSCG00000025284","true","false","Cluster 3","Clustered","2.7","IPECJ2_ENSSSCG00000025284","5.6","5","0","IPEC_J2","0","0.80612245","false","0","coenzyme Q9 [Source:HGNC Symbol;Acc:HGNC:25302]","IPECJ2_ENSSSCG00000025284","4862","0.31764706"
"210","5.89795918","0.0","0.16955017","1.0","2","13","ENSSSCG00000010446","true","false","","Unclustered","2.0","IPECJ2_ENSSSCG00000010446","5.5","2","0","IPEC_J2","0","0.69387755","false","0","AMSH-like protease  [Source:RefSeq peptide;Acc:NP_001230272]","IPECJ2_ENSSSCG00000010446","0","0.6875"
"211","4.10204082","2.5815E-4","0.24378109","0.66666667","3","10","XLOC_004258","true","false","","Unclustered","1.6666666666666667","AscL3_XLOC_004258","9.33333333","3","0","AscL3","0","0.80612245","false","0","Unknown","AscL3_XLOC_004258","24","0.51851852"
"212","3.32653061","0.03309835","0.3006135","0.30555556","9","10","ENSSSCG00000024984","true","false","Cluster 4","Clustered","4.0","IPECJ2_ENSSSCG00000024984","9.66666667","9","0","IPEC_J2","0","0.85459184","true","0","Unknown","IPECJ2_ENSSSCG00000024984","12730","0.18736383"
"213","3.2244898","0.01347756","0.31012658","0.55652174","46","9","ENSSSCG00000024974","true","false","Cluster 1","Clustered","18.933333333333334","IPECJ2_ENSSSCG00000024974","33.7173913","46","0","IPEC_J2","0","0.86096939","true","0","ribosomal protein L13 [Source:HGNC Symbol;Acc:HGNC:10303]","IPECJ2_ENSSSCG00000024974","30708","0.37463768"
"214","3.6122449","0.01316348","0.27683616","0.35714286","8","10","ENSSSCG00000010239","true","false","","Unclustered","1.8214285714285712","IPECJ2_ENSSSCG00000010239","10.5","8","0","IPEC_J2","0","0.83673469","false","0","RUN and FYVE domain containing 2 [Source:HGNC Symbol;Acc:HGNC:19761]","IPECJ2_ENSSSCG00000010239","4324","0.24127907"
"215","8.89285714","0.01020408","0.1124498","0.0","2","15","XLOC_002460","true","false","","Unclustered","0.6666666666666666","AscL3_XLOC_002460","1.5","2","0","AscL3","0","0.50669643","false","0","Unknown","AscL3_XLOC_002460","9102","0.5"
"216","1.0","0.0","1.0","0.0","1","1","ENSSSCG00000010160","true","false","","Unclustered","0.0","IPECJ2_ENSSSCG00000010160","1.0","1","0","IPEC_J2","0","1.0","false","0","TAR (HIV-1) RNA binding protein 1 [Source:HGNC Symbol;Acc:HGNC:11568]","IPECJ2_ENSSSCG00000010160","0","0.0"
"217","3.96938776","0.00769657","0.25192802","0.46666667","6","11","gene_Liv_01915","true","false","","Unclustered","2.1999999999999997","AscL3_gene_Liv_01915","12.83333333","6","0","AscL3","0","0.81441327","false","0","Uncharacterized protein OS=Ascaris lumbricoides PE=4 SV=1","AscL3_gene_Liv_01915","4718","0.31300813"
"218","5.48979592","0.00494573","0.18215613","0.6","5","12","gene_Liv_03967","true","false","","Unclustered","2.1999999999999997","AscL3_gene_Liv_03967","4.2","5","0","AscL3","0","0.71938776","false","0","Venom allergen 5 OS=Ascaris suum GN=ASU_02857 PE=3 SV=1","AscL3_gene_Liv_03967","4078","0.46666667"
"219","3.41326531","0.06846095","0.29297459","0.62561576","29","9","ENSSSCG00000010063","true","false","Cluster 1","Clustered","15.494736842105263","IPECJ2_ENSSSCG00000010063","30.89655172","29","0","IPEC_J2","0","0.84917092","true","0","Macrophage migration inhibitory factor OS=Sus scrofa GN=MIF PE=1 SV=3","IPECJ2_ENSSSCG00000010063","59754","0.37224761"
"220","6.6377551","0.0","0.15065334","0.0","1","14","ENSSSCG00000010042","true","false","","Unclustered","0.0","IPECJ2_ENSSSCG00000010042","9.0","1","0","IPEC_J2","0","0.64764031","false","0","zinc finger protein 280B [Source:HGNC Symbol;Acc:HGNC:23022]","IPECJ2_ENSSSCG00000010042","0","0.0"
"221","3.0255102","0.13818179","0.33052277","0.43589744","13","9","ENSSSCG00000024666","true","false","","Unclustered","7.0","IPECJ2_ENSSSCG00000024666","25.84615385","13","0","IPEC_J2","0","0.87340561","false","0","FXYD domain containing ion transport regulator 3 [Source:HGNC Symbol;Acc:HGNC:4027]","IPECJ2_ENSSSCG00000024666","82420","0.3040724"
"222","1.5","0.0","0.66666667","0.0","1","2","ENSSSCG00000024663","true","false","","Unclustered","0.0","IPECJ2_ENSSSCG00000024663","2.0","1","0","IPEC_J2","0","0.75","false","0","spindle and centriole associated protein 1 [Source:HGNC Symbol;Acc:HGNC:25083]","IPECJ2_ENSSSCG00000024663","0","0.0"
"223","6.04081633","0.01020408","0.16554054","0.0","2","12","gene_GS_24029","true","false","","Unclustered","0.6666666666666666","AscL3_gene_GS_24029","1.5","2","0","AscL3","0","0.68494898","false","0","1,2-dihydroxy-3-keto-5-methylthiopentene dioxygenase homolog OS=Ascaris suum GN=ASU_02170 PE=3 SV=1","AscL3_gene_GS_24029","5384","0.5"
"224","5.45408163","0.0","0.18334892","1.0","2","11","gene_L3E_02947","true","false","Cluster 15","Clustered","2.0","AscL3_gene_L3E_02947","2.5","2","0","AscL3","0","0.7216199","false","0","Unknown","AscL3_gene_L3E_02947","0","0.83333333"
"225","3.0255102","0.1594977","0.33052277","0.19367589","23","9","gene_L3E_01572","true","false","Cluster 4","Clustered","4.285714285714286","AscL3_gene_L3E_01572","10.7826087","23","0","AscL3","0","0.87340561","true","0","Bm1034 OS=Brugia malayi GN=Bm1034 PE=4 SV=1","AscL3_gene_L3E_01572","116776","0.12537917"
"226","1.0","1.0","1.0","0.0","2","1","gene_GS_22808","true","false","","Unclustered","0.6666666666666666","AscL3_gene_GS_22808","1.0","2","0","AscL3","0","1.0","false","0","227 kDa spindle- and centromere-associated protein OS=Parascaris univalens GN=PUMA1 PE=2 SV=1","AscL3_gene_GS_22808","2","0.0"
"227","1.0","0.66666667","1.0","0.33333333","3","1","gene_GS_23463","true","false","Cluster 11","Clustered","2.0","AscL3_gene_GS_23463","1.66666667","3","0","AscL3","0","1.0","false","0","Uncharacterized protein OS=Ascaris suum GN=ASU_11150 PE=4 SV=1","AscL3_gene_GS_23463","4","0.66666667"
"228","6.85204082","0.0","0.14594192","0.0","1","14","ENSSSCG00000009491","true","false","","Unclustered","0.0","IPECJ2_ENSSSCG00000009491","6.0","1","0","IPEC_J2","0","0.63424745","false","0","TDP-glucose 4,6-dehydratase [Source:HGNC Symbol;Acc:HGNC:20324]","IPECJ2_ENSSSCG00000009491","0","0.0"
"229","4.88265306","0.01020408","0.20480669","0.33333333","3","12","gene_GS_20549","true","false","Cluster 14","Clustered","2.0","AscL3_gene_GS_20549","2.33333333","3","0","AscL3","0","0.75733418","false","0","Uncharacterized protein OS=Ascaris lumbricoides PE=4 SV=1","AscL3_gene_GS_20549","5778","0.5"
"230","3.16326531","0.01474353","0.31612903","0.44852941","17","9","ENSSSCG00000009479","true","false","","Unclustered","3.264705882352941","IPECJ2_ENSSSCG00000009479","25.82352941","17","0","IPEC_J2","0","0.86479592","false","0","RNA binding motif protein 26 [Source:HGNC Symbol;Acc:HGNC:20327]","IPECJ2_ENSSSCG00000009479","13912","0.25823529"
"231","3.31632653","0.00639292","0.30153846","0.6884058","24","10","ENSSSCG00000024254","true","false","Cluster 2","Clustered","12.466666666666665","IPECJ2_ENSSSCG00000024254","31.08333333","24","0","IPEC_J2","0","0.85522959","true","0","alkB homolog 7 [Source:HGNC Symbol;Acc:HGNC:21306]","IPECJ2_ENSSSCG00000024254","6072","0.39850427"
"232","3.73469388","0.0122798","0.26775956","0.3","5","10","gene_GS_21074","true","false","","Unclustered","1.0666666666666667","AscL3_gene_GS_21074","9.0","5","0","AscL3","0","0.82908163","false","0","Forkhead box protein P1 OS=Ascaris suum PE=2 SV=1","AscL3_gene_GS_21074","6414","0.27272727"
"233","4.53571429","2.0117E-4","0.22047244","0.33333333","3","11","gene_GS_18153","true","false","","Unclustered","2.0","AscL3_gene_GS_18153","5.33333333","3","0","AscL3","0","0.77901786","false","0","Histone RNA hairpin-binding protein OS=Ascaris suum PE=2 SV=1","AscL3_gene_GS_18153","18","0.45454545"
"234","3.95918367","7.8673E-4","0.25257732","0.71794872","13","10","ENSSSCG00000024180","true","false","","Unclustered","8.836363636363636","IPECJ2_ENSSSCG00000024180","22.69230769","13","0","IPEC_J2","0","0.81505102","false","0","peripherial benzodiazepine receptor associated protein  [Source:RefSeq peptide;Acc:NP_001009581]","IPECJ2_ENSSSCG00000024180","2734","0.45384615"
"235","1.0","1.0","1.0","0.0","2","1","gene_GS_18003","true","false","","Unclustered","0.6666666666666666","AscL3_gene_GS_18003","1.0","2","0","AscL3","0","1.0","false","0","Succinyl-CoA:3-ketoacid-coenzyme A transferase OS=Ascaris suum GN=ASU_13672 PE=3 SV=1","AscL3_gene_GS_18003","2","0.0"
"236","1.33333333","0.0","0.75","1.0","2","2","ENSSSCG00000024201","true","false","Cluster 11","Clustered","2.0","IPECJ2_ENSSSCG00000024201","2.5","2","0","IPEC_J2","0","0.83333333","false","0","family with sequence similarity 208 member A [Source:HGNC Symbol;Acc:HGNC:30314]","IPECJ2_ENSSSCG00000024201","0","0.83333333"
"237","5.85714286","0.02520408","0.17073171","0.2","6","13","gene_GS_19483","true","false","","Unclustered","1.4","AscL3_gene_GS_19483","2.33333333","6","0","AscL3","0","0.69642857","false","0","WD repeat-containing protein tag-125 OS=Caenorhabditis briggsae GN=tag-125 PE=4 SV=1","AscL3_gene_GS_19483","13998","0.33333333"
"238","1.0","0.0","1.0","0.0","1","1","gene_GS_17516","true","false","","Unclustered","0.0","AscL3_gene_GS_17516","1.0","1","0","AscL3","0","1.0","false","0","Solute carrier family facilitated glucose transporter member 3 OS=Ascaris suum GN=ASU_08638 PE=3 SV=1","AscL3_gene_GS_17516","0","0.0"
"239","1.0","0.0","1.0","0.0","1","1","gene_GS_17433","true","false","","Unclustered","0.0","AscL3_gene_GS_17433","1.0","1","0","AscL3","0","1.0","false","0","Receptor-type tyrosine-protein phosphatase c OS=Ascaris suum GN=ASU_10873 PE=4 SV=1","AscL3_gene_GS_17433","0","0.0"
"240","1.5","0.0","0.66666667","0.0","1","2","ENSSSCG00000009401","true","false","","Unclustered","0.0","IPECJ2_ENSSSCG00000009401","2.0","1","0","IPEC_J2","0","0.75","false","0","RB transcriptional corepressor 1 [Source:HGNC Symbol;Acc:HGNC:9884]","IPECJ2_ENSSSCG00000009401","0","0.0"
"241","1.5","0.0","0.66666667","0.0","1","2","gene_GS_17972","true","false","","Unclustered","0.0","AscL3_gene_GS_17972","2.0","1","0","AscL3","0","0.75","false","0","Neuronal symmetry family member (Nsy-4) OS=Ascaris suum GN=ASU_02089 PE=4 SV=1","AscL3_gene_GS_17972","0","0.0"
"242","1.0","0.0","1.0","0.0","1","1","gene_GS_17130","true","false","","Unclustered","0.0","AscL3_gene_GS_17130","1.0","1","0","AscL3","0","1.0","false","0","Tyrosinase-like protein tyr-3 OS=Ascaris suum GN=ASU_08505 PE=4 SV=1","AscL3_gene_GS_17130","0","0.0"
"243","4.8622449","0.00461927","0.20566632","0.66666667","3","11","gene_GS_17429","true","false","","Unclustered","1.6666666666666667","AscL3_gene_GS_17429","6.0","3","0","AscL3","0","0.75860969","false","0","Uncharacterized protein OS=Ascaris suum GN=ASU_07317 PE=4 SV=1","AscL3_gene_GS_17429","7522","0.46153846"
"244","4.39795918","0.00211942","0.22737819","0.46666667","6","11","ENSSSCG00000023960","true","false","Cluster 7","Clustered","2.7","IPECJ2_ENSSSCG00000023960","7.0","6","0","IPEC_J2","0","0.78762755","false","0","Unknown","IPECJ2_ENSSSCG00000023960","1474","0.41176471"
"245","4.98469388","0.0","0.20061412","1.0","2","12","gene_GS_15118","true","false","","Unclustered","2.0","AscL3_gene_GS_15118","5.0","2","0","AscL3","0","0.75095663","false","0","Sodium hydrogen exchanger 9b2 OS=Ascaris suum GN=ASU_04428 PE=4 SV=1","AscL3_gene_GS_15118","0","0.71428571"
"246","1.5","0.0","0.66666667","0.0","1","2","gene_GS_15926","true","false","","Unclustered","0.0","AscL3_gene_GS_15926","2.0","1","0","AscL3","0","0.75","false","0","Cral-trio domain-containing protein OS=Ascaris suum GN=ASU_06993 PE=4 SV=1","AscL3_gene_GS_15926","0","0.0"
"247","5.05612245","0.0","0.19778002","1.0","3","12","gene_GS_13356","true","false","Cluster 6","Clustered","3.0","AscL3_gene_GS_13356","4.33333333","3","0","AscL3","0","0.74649235","false","0","STE20/SPS1-related proline-alanine-rich protein kinase OS=Ascaris suum GN=ASU_07761 PE=2 SV=1","AscL3_gene_GS_13356","0","0.61904762"
"248","3.44897959","0.00800171","0.28994083","0.33333333","6","10","ENSSSCG00000009217","true","false","","Unclustered","3.0","IPECJ2_ENSSSCG00000009217","20.33333333","6","0","IPEC_J2","0","0.84693878","false","0","polycystin 2, transient receptor potential cation channel [Source:HGNC Symbol;Acc:HGNC:9009]","IPECJ2_ENSSSCG00000009217","4164","0.28403756"
"249","1.0","1.0","1.0","0.0","2","1","gene_GS_13390","true","false","","Unclustered","0.6666666666666666","AscL3_gene_GS_13390","1.0","2","0","AscL3","0","1.0","false","0","WD repeat domain phosphoinositide-interacting protein 2 OS=Ascaris suum GN=ASU_00103 PE=2 SV=1","AscL3_gene_GS_13390","2","0.0"
"250","5.01530612","0.04997384","0.19938962","0.5","4","11","ENSSSCG00000009077","true","false","Cluster 8","Clustered","3.0","IPECJ2_ENSSSCG00000009077","4.5","4","0","IPEC_J2","0","0.74904337","false","0","heat shock protein family A (Hsp70) member 4 like [Source:HGNC Symbol;Acc:HGNC:17041]","IPECJ2_ENSSSCG00000009077","45470","0.53125"
"251","3.32653061","0.00694075","0.3006135","0.62753036","39","9","gene_GS_12056","true","false","Cluster 1","Seed","19.130434782608695","AscL3_gene_GS_12056","35.05128205","39","0","AscL3","0","0.85459184","true","0","Elongation of very long chain fatty acids protein OS=Ascaris suum GN=ASU_11627 PE=3 SV=1","AscL3_gene_GS_12056","9384","0.39831002"
"252","5.45408163","0.0","0.18334892","1.0","2","11","ENSSSCG00000023467","true","false","Cluster 15","Clustered","2.0","IPECJ2_ENSSSCG00000023467","2.5","2","0","IPEC_J2","0","0.7216199","false","0","Unknown","IPECJ2_ENSSSCG00000023467","0","0.83333333"
"253","3.71938776","0.00934495","0.26886145","0.4","6","10","ENSSSCG00000023334","true","false","","Unclustered","2.1999999999999997","IPECJ2_ENSSSCG00000023334","10.66666667","6","0","IPEC_J2","0","0.83003827","false","0","Uncharacterized protein OS=Sus scrofa GN=CXorf23 PE=4 SV=1","IPECJ2_ENSSSCG00000023334","2514","0.2625"
"254","3.67857143","0.00645536","0.27184466","0.62153846","26","10","gene_GS_11251","true","false","Cluster 5","Seed","14.0","AscL3_gene_GS_11251","25.76923077","26","0","AscL3","0","0.83258929","true","0","Uncharacterized protein OS=Ascaris suum GN=ASU_01462 PE=4 SV=1","AscL3_gene_GS_11251","17296","0.37895928"
"255","1.0","0.0","1.0","0.0","1","1","gene_GS_11634","true","false","","Unclustered","0.0","AscL3_gene_GS_11634","1.0","1","0","AscL3","0","1.0","false","0","Patched domain-containing protein 3 OS=Ascaris suum GN=ASU_10181 PE=4 SV=1","AscL3_gene_GS_11634","0","0.0"
"256","3.33673469","0.01513946","0.29969419","0.55862069","30","10","ENSSSCG00000023325","true","false","Cluster 2","Clustered","14.406926406926408","IPECJ2_ENSSSCG00000023325","28.83333333","30","0","IPEC_J2","0","0.85395408","true","0","Aminoacylase-1  [Source:UniProtKB/Swiss-Prot;Acc:P37111]","IPECJ2_ENSSSCG00000023325","17548","0.34325397"
"257","8.58163265","0.0","0.11652794","0.0","1","16","gene_GS_10767","true","false","","Unclustered","0.0","AscL3_gene_GS_10767","3.0","1","0","AscL3","0","0.52614796","false","0","Putative transporter C38C10.2 OS=Toxocara canis GN=C38C10.2 PE=4 SV=1","AscL3_gene_GS_10767","0","0.0"
"258","3.33673469","0.00743281","0.29969419","0.69677419","31","9","ENSSSCG00000023139","true","false","Cluster 1","Clustered","16.956521739130434","IPECJ2_ENSSSCG00000023139","38.12903226","31","0","IPEC_J2","0","0.85395408","true","0","Isoform 2 of Methyltransferase-like protein 23 OS=Homo sapiens GN=METTL23","IPECJ2_ENSSSCG00000023139","11224","0.44857685"
"259","3.63265306","0.02528018","0.2752809","0.47619048","7","10","ENSSSCG00000008762","true","false","Cluster 4","Clustered","4.0","IPECJ2_ENSSSCG00000008762","10.0","7","0","IPEC_J2","0","0.83545918","true","0","stromal interaction molecule 2 [Source:HGNC Symbol;Acc:HGNC:19205]","IPECJ2_ENSSSCG00000008762","25138","0.28571429"
"260","1.0","0.0","1.0","0.0","1","1","gene_GS_09495","true","false","","Unclustered","0.0","AscL3_gene_GS_09495","1.0","1","0","AscL3","0","1.0","false","0","Unknown","AscL3_gene_GS_09495","0","0.0"
"261","3.01020408","0.03090235","0.33220339","0.52380952","28","9","gene_GS_09942","true","false","Cluster 2","Clustered","12.628571428571428","AscL3_gene_GS_09942","28.28571429","28","0","AscL3","0","0.87436224","true","0","Sperm-specific protein OS=Ascaris suum GN=ASU_04668 PE=4 SV=1","AscL3_gene_GS_09942","28356","0.30091185"
"262","3.25","0.00650341","0.30769231","0.69565217","23","9","ENSSSCG00000023110","true","false","Cluster 9","Seed","11.980392156862745","IPECJ2_ENSSSCG00000023110","33.86956522","23","0","IPEC_J2","0","0.859375","false","0","UBX domain protein 1 [Source:HGNC Symbol;Acc:HGNC:18402]","IPECJ2_ENSSSCG00000023110","7752","0.42872867"
"263","6.93367347","0.03029827","0.14422369","0.0","2","13","gene_GS_09313","true","false","","Unclustered","0.6666666666666666","AscL3_gene_GS_09313","2.0","2","0","AscL3","0","0.62914541","false","0","Zeta-crystallin OS=Ascaris suum GN=ASU_09109 PE=4 SV=1","AscL3_gene_GS_09313","27294","0.5"
"264","3.69387755","0.05270695","0.27071823","0.33333333","4","10","ENSSSCG00000023041","true","false","","Unclustered","1.2","IPECJ2_ENSSSCG00000023041","6.75","4","0","IPEC_J2","0","0.83163265","false","0","poly(rC) binding protein 3 [Source:HGNC Symbol;Acc:HGNC:8651]","IPECJ2_ENSSSCG00000023041","18158","0.32142857"
"265","3.37244898","0.10385957","0.29652042","0.31818182","12","10","ENSSSCG00000008600","true","false","Cluster 7","Clustered","2.5555555555555554","IPECJ2_ENSSSCG00000008600","8.41666667","12","0","IPEC_J2","0","0.85172194","false","0","pumilio RNA binding family member 2 [Source:HGNC Symbol;Acc:HGNC:14958]","IPECJ2_ENSSSCG00000008600","79660","0.19128788"
"266","6.40816327","0.0","0.15605096","0.0","1","13","gene_GS_08285","true","false","","Unclustered","0.0","AscL3_gene_GS_08285","3.0","1","0","AscL3","0","0.6619898","false","0","Multidrug resistance protein pgp-1 OS=Ascaris suum GN=ASU_04530 PE=4 SV=1","AscL3_gene_GS_08285","0","0.0"
"267","3.56632653","0.01322648","0.28040057","0.64444444","10","10","ENSSSCG00000008583","true","false","","Unclustered","7.0","IPECJ2_ENSSSCG00000008583","23.6","10","0","IPEC_J2","0","0.83960459","false","0","intersectin 2 [Source:HGNC Symbol;Acc:HGNC:6184]","IPECJ2_ENSSSCG00000008583","9474","0.36875"
"268","5.72959184","0.00443238","0.1745325","0.3","5","13","gene_GS_06937","true","false","","Unclustered","1.0666666666666667","AscL3_gene_GS_06937","4.4","5","0","AscL3","0","0.70440051","false","0","Bm6553 OS=Brugia malayi GN=Bm6553 PE=4 SV=1","AscL3_gene_GS_06937","306","0.275"
"269","1.0","0.0","1.0","0.0","1","1","gene_GS_06005","true","false","","Unclustered","0.0","AscL3_gene_GS_06005","1.0","1","0","AscL3","0","1.0","false","0","Bm4075 OS=Brugia malayi GN=Bm4075 PE=4 SV=1","AscL3_gene_GS_06005","0","0.0"
"270","3.3877551","0.01147535","0.29518072","0.39166667","16","10","ENSSSCG00000022867","true","false","","Unclustered","7.0","IPECJ2_ENSSSCG00000022867","23.5","16","0","IPEC_J2","0","0.85076531","false","0","Unknown","IPECJ2_ENSSSCG00000022867","13784","0.2797619"
"271","1.0","0.0","1.0","0.0","1","1","gene_GS_06576","true","false","","Unclustered","0.0","AscL3_gene_GS_06576","1.0","1","0","AscL3","0","1.0","false","0","Bifunctional glyoxylate cycle protein OS=Ascaris suum GN=ASU_02627 PE=4 SV=1","AscL3_gene_GS_06576","0","0.0"
"272","4.66836735","0.00482015","0.21420765","0.53333333","6","12","gene_GS_06168","true","false","Cluster 10","Clustered","4.0","AscL3_gene_GS_06168","6.33333333","6","0","AscL3","0","0.77072704","false","0","Gut esterase 1 OS=Ascaris suum GN=ASU_12569 PE=4 SV=1","AscL3_gene_GS_06168","1002","0.41111111"
"273","1.0","0.0","1.0","0.0","1","1","ENSSSCG00000008478","true","false","","Unclustered","0.0","IPECJ2_ENSSSCG00000008478","1.0","1","0","IPEC_J2","0","1.0","false","0","Unknown","IPECJ2_ENSSSCG00000008478","0","0.0"
"274","6.5255102","0.01832023","0.15324472","0.16666667","4","14","ENSSSCG00000022801","true","false","Cluster 13","Clustered","2.0","IPECJ2_ENSSSCG00000022801","3.5","4","0","IPEC_J2","0","0.65465561","false","0","S100P binding protein [Source:HGNC Symbol;Acc:HGNC:25768]","IPECJ2_ENSSSCG00000022801","22394","0.33333333"
"275","4.41836735","0.00420982","0.22632794","0.5","5","11","gene_GS_05602","true","false","Cluster 3","Clustered","2.7","AscL3_gene_GS_05602","4.6","5","0","AscL3","0","0.78635204","false","0","CUGBP Elav family member 4 OS=Ascaris suum GN=ASU_10313 PE=2 SV=1","AscL3_gene_GS_05602","982","0.4"
"276","6.71938776","0.0","0.14882308","0.0","1","13","gene_GS_04525","true","false","","Unclustered","0.0","AscL3_gene_GS_04525","4.0","1","0","AscL3","0","0.64253827","false","0","Glutaredoxin-1 OS=Ascaris suum GN=ASU_08951 PE=4 SV=1","AscL3_gene_GS_04525","0","0.0"
"277","1.0","0.0","1.0","0.0","1","1","gene_GS_05131","true","false","","Unclustered","0.0","AscL3_gene_GS_05131","1.0","1","0","AscL3","0","1.0","false","0","Adp-ribosylation crystallin j1 OS=Ascaris suum GN=ASU_03574 PE=4 SV=1","AscL3_gene_GS_05131","0","0.0"
"278","7.90816327","0.02030351","0.12645161","0.0","2","14","ENSSSCG00000022712","true","false","","Unclustered","0.6666666666666666","IPECJ2_ENSSSCG00000022712","2.0","2","0","IPEC_J2","0","0.5682398","false","0","Unknown","IPECJ2_ENSSSCG00000022712","18200","0.5"
"279","3.18877551","0.01932541","0.3136","0.57301587","36","9","ENSSSCG00000022647","true","false","Cluster 1","Clustered","15.99209486166008","IPECJ2_ENSSSCG00000022647","32.47222222","36","0","IPEC_J2","0","0.86320153","true","0","translocase of inner mitochondrial membrane 17 homolog B (yeast) [Source:HGNC Symbol;Acc:HGNC:17310]","IPECJ2_ENSSSCG00000022647","24668","0.34544917"
"280","3.96938776","0.01121577","0.25192802","0.3","5","11","ENSSSCG00000008412","true","false","Cluster 3","Clustered","3.0","IPECJ2_ENSSSCG00000008412","5.8","5","0","IPEC_J2","0","0.81441327","false","0","proteasome activator subunit 4 [Source:HGNC Symbol;Acc:HGNC:20635]","IPECJ2_ENSSSCG00000008412","2272","0.31764706"
"281","4.59693878","0.00965723","0.21753607","0.3","5","11","gene_GS_04352","true","false","","Unclustered","1.4","AscL3_gene_GS_04352","4.8","5","0","AscL3","0","0.77519133","false","0","Nematode cuticle collagen domain-containing protein OS=Ascaris suum GN=ASU_04661 PE=4 SV=1","AscL3_gene_GS_04352","9756","0.32857143"
"282","1.0","0.0","1.0","0.0","1","1","gene_GS_04478","true","false","","Unclustered","0.0","AscL3_gene_GS_04478","1.0","1","0","AscL3","0","1.0","false","0","Uncharacterized protein OS=Ascaris suum GN=ASU_01837 PE=4 SV=1","AscL3_gene_GS_04478","0","0.0"
"283","4.71938776","0.00407595","0.21189189","0.83333333","4","11","gene_GS_04442","true","false","Cluster 8","Clustered","2.7","AscL3_gene_GS_04442","5.25","4","0","AscL3","0","0.76753827","false","0","Hyaluronidase OS=Ascaris suum GN=ASU_05650 PE=3 SV=1","AscL3_gene_GS_04442","2052","0.58333333"
"284","3.03571429","0.04902778","0.32941176","0.514518","42","9","XLOC_029898","true","false","Cluster 1","Clustered","18.506493506493506","IPECJ2_XLOC_029898","32.66666667","42","0","IPEC_J2","0","0.87276786","true","0","Proteasome subunit beta type-7 OS=Sus scrofa GN=PSMB7 PE=2 SV=2","IPECJ2_XLOC_029898","46494","0.33333333"
"285","1.0","0.0","1.0","1.0","2","1","gene_GS_04314","true","false","Cluster 12","Clustered","2.0","AscL3_gene_GS_04314","2.0","2","0","AscL3","0","1.0","false","0","Uncharacterized protein OS=Toxocara canis GN=Tcan_08058 PE=4 SV=1","AscL3_gene_GS_04314","0","1.0"
"286","6.30612245","0.00671727","0.15857605","0.33333333","3","14","XLOC_029191","true","false","Cluster 13","Clustered","2.0","IPECJ2_XLOC_029191","5.66666667","3","0","IPEC_J2","0","0.66836735","false","0","Unknown","IPECJ2_XLOC_029191","5650","0.44444444"
"287","5.99489796","0.01020408","0.16680851","0.0","2","12","gene_GS_02917","true","false","","Unclustered","0.6666666666666666","AscL3_gene_GS_02917","1.5","2","0","AscL3","0","0.68781888","false","0","Uncharacterized protein OS=Ascaris suum GN=ASU_02373 PE=4 SV=1","AscL3_gene_GS_02917","4716","0.5"
"288","7.51020408","0.0","0.13315217","1.0","2","15","gene_GS_03432","true","false","Cluster 13","Clustered","2.0","AscL3_gene_GS_03432","3.5","2","0","AscL3","0","0.59311224","false","0","Uncharacterized protein OS=Ascaris suum GN=ASU_00026 PE=4 SV=1","AscL3_gene_GS_03432","0","0.7"
"289","5.05612245","0.0","0.19778002","1.0","3","12","ENSSSCG00000022417","true","false","Cluster 6","Clustered","3.0","IPECJ2_ENSSSCG00000022417","4.33333333","3","0","IPEC_J2","0","0.74649235","false","0","hepatocyte nuclear factor 1-beta  [Source:RefSeq peptide;Acc:NP_999121]","IPECJ2_ENSSSCG00000022417","0","0.61904762"
"290","4.58163265","0.02065587","0.21826281","0.33333333","3","11","gene_GS_01555","true","false","","Unclustered","2.0","AscL3_gene_GS_01555","3.66666667","3","0","AscL3","0","0.77614796","false","0","Putative atp-dependent rna helicase dhx35-like protein OS=Ascaris suum GN=ASU_11930 PE=4 SV=1","AscL3_gene_GS_01555","6292","0.41666667"
"291","1.5","0.0","0.66666667","0.0","1","2","ENSSSCG00000022398","true","false","","Unclustered","0.0","IPECJ2_ENSSSCG00000022398","2.0","1","0","IPEC_J2","0","0.75","false","0","nuclear casein kinase and cyclin dependent kinase substrate 1 [Source:HGNC Symbol;Acc:HGNC:29923]","IPECJ2_ENSSSCG00000022398","0","0.0"
"292","5.48979592","0.00494573","0.18215613","0.6","5","12","gene_GS_02546","true","false","","Unclustered","2.1999999999999997","AscL3_gene_GS_02546","4.2","5","0","AscL3","0","0.71938776","false","0","Venom allergen 5 OS=Ascaris suum GN=ASU_02857 PE=3 SV=1","AscL3_gene_GS_02546","4078","0.46666667"
"293","5.41326531","0.01305114","0.18473139","0.0","3","12","ENSSSCG00000022273","true","false","","Unclustered","0.5","IPECJ2_ENSSSCG00000022273","2.33333333","3","0","IPEC_J2","0","0.72417092","false","0","Unknown","IPECJ2_ENSSSCG00000022273","4518","0.33333333"
"294","7.03571429","0.0","0.14213198","0.0","1","13","ENSSSCG00000008105","true","false","","Unclustered","0.0","IPECJ2_ENSSSCG00000008105","2.0","1","0","IPEC_J2","0","0.62276786","false","0","Unknown","IPECJ2_ENSSSCG00000008105","0","0.0"
"295","1.0","0.0","1.0","0.0","1","1","ENSSSCG00000022070","true","false","","Unclustered","0.0","IPECJ2_ENSSSCG00000022070","1.0","1","0","IPEC_J2","0","1.0","false","0","zinc finger protein 143 [Source:HGNC Symbol;Acc:HGNC:12928]","IPECJ2_ENSSSCG00000022070","0","0.0"
"296","1.0","0.0","1.0","0.0","1","1","gene_GS_00138","true","false","","Unclustered","0.0","AscL3_gene_GS_00138","1.0","1","0","AscL3","0","1.0","false","0","Myoglobin OS=Ascaris suum GN=ASU_01478 PE=3 SV=1","AscL3_gene_GS_00138","0","0.0"
"297","3.3622449","0.00358017","0.29742033","0.67137097","32","9","ENSSSCG00000021825","true","false","Cluster 1","Clustered","16.19047619047619","IPECJ2_ENSSSCG00000021825","31.90625","32","0","IPEC_J2","0","0.85235969","true","0","40S ribosomal protein S21  [Source:UniProtKB/Swiss-Prot;Acc:P63221]","IPECJ2_ENSSSCG00000021825","7648","0.37983631"
"298","4.03571429","0.06018362","0.24778761","0.16666667","4","10","ENSSSCG00000007672","true","false","","Unclustered","2.0","IPECJ2_ENSSSCG00000007672","6.5","4","0","IPEC_J2","0","0.81026786","false","0","POP7 homolog, ribonuclease P/MRP subunit [Source:HGNC Symbol;Acc:HGNC:19949]","IPECJ2_ENSSSCG00000007672","38824","0.28571429"
"299","3.19387755","0.00825329","0.31309904","0.65721997","39","9","ENSSSCG00000007646","true","false","Cluster 1","Clustered","19.130434782608695","IPECJ2_ENSSSCG00000007646","36.87179487","39","0","IPEC_J2","0","0.86288265","true","0","late endosomal/lysosomal adaptor, MAPK and MTOR activator 4 [Source:HGNC Symbol;Acc:HGNC:33772]","IPECJ2_ENSSSCG00000007646","16134","0.39647091"
