issueL1	nucleus
issueL2	endoplasmic reticulum
issueL3	cytoplasm
issueL4	intracellular transport
issueL5	plasma membrane,transmembrane transport,transmembrane transporter activity
issueL6	cell-cell junction,cell-cell junction organization